<?xml version="1.0" encoding="UTF-8"?>
<!DOCTYPE svg PUBLIC "-//W3C//DTD SVG 1.1//EN" "http://www.w3.org/Graphics/SVG/1.1/DTD/svg11.dtd">
<!-- Creator: CorelDRAW 2020 (64-Bit) -->
<svg xmlns="http://www.w3.org/2000/svg" xml:space="preserve" width="50px" height="50px" version="1.1" style="shape-rendering:geometricPrecision; text-rendering:geometricPrecision; image-rendering:optimizeQuality; fill-rule:evenodd; clip-rule:evenodd"
viewBox="0 0 5000 5000"
 xmlns:xlink="http://www.w3.org/1999/xlink"
 xmlns:xodm="http://www.corel.com/coreldraw/odm/2003">
 <defs>
  <style type="text/css">
   <![CDATA[
    .str0 {stroke:#2B2A29;stroke-width:5;stroke-miterlimit:22.9256}
    .fil0 {fill:#333333}
    .fil1 {fill:#666666;fill-rule:nonzero}
   ]]>
  </style>
 </defs>
 <g id="Слой_x0020_1">
  <metadata id="CorelCorpID_0Corel-Layer"/>
  <g id="_2783962689808">
   <rect class="fil0 str0" x="1408" y="808" width="2122" height="3513"/>
   <path class="fil1" d="M2500 0c-1378,0 -2500,1121 -2500,2500 0,1379 1122,2500 2500,2500 1379,0 2500,-1121 2500,-2500 0,-1379 -1121,-2500 -2500,-2500zm761 1522l-358 0c-210,0 -294,49 -294,196l0 347 652 0 -109 544 -543 0 0 1413 -652 0 0 -1413 -327 0 0 -544 327 0 0 -301c0,-460 183,-786 715,-786 285,0 589,109 589,109l0 435z"/>
  </g>
 </g>
</svg>
